{
    "categories": [{
            "name": "category 1",
            "id": "category1",
            "subcategories": [{
                    "name": "service 1",
                    "id": "service1"
                },
                {
                    "name": "service 2",
                    "id": "service2"
                },
                {
                    "name": "service 3",
                    "id": "service3"
                }
            ]
        },
        {
            "name": "category 2",
            "id": "category2",
            "subcategories": [{
                    "name": "service 1",
                    "id": "service1"
                },
                {
                    "name": "service 2",
                    "id": "service2"
                }
            ]
        },
        {
            "name": "category 3",
            "id": "category3",
            "subcategories": [{
                    "name": "service 1",
                    "id": "service1"
                },
                {
                    "name": "service 2",
                    "id": "service2"
                },
                {
                    "name": "service 3",
                    "id": "service3"
                },
                {
                    "name": "service 4",
                    "id": "service4"
                }
            ]
        },
        {
            "name": "category 4",
            "id": "category4",
            "subcategories": [{
                "name": "service 1",
                "id": "service1"
            }]
        }
    ]
}